<?xml version="1.0" encoding="utf-8"?>
<!-- Generator: Adobe Illustrator 16.0.0, SVG Export Plug-In . SVG Version: 6.00 Build 0)  -->
<!DOCTYPE svg PUBLIC "-//W3C//DTD SVG 1.1//EN" "http://www.w3.org/Graphics/SVG/1.1/DTD/svg11.dtd">
<svg version="1.1" id="Layer_1" xmlns="http://www.w3.org/2000/svg" xmlns:xlink="http://www.w3.org/1999/xlink" x="0px" y="0px"
	 width="56.333px" height="56.333px" viewBox="0 0 56.333 56.333" style="enable-background:new 0 0 56.333 56.333;"
	 xml:space="preserve">
<style type="text/css">
<![CDATA[
	.st0{fill:#FFFFFF;stroke:#D8D8D8;stroke-miterlimit:10;}
	.st1{opacity:0.5;fill:#DBDBDB;stroke:#AAAAAA;stroke-linecap:round;stroke-linejoin:round;stroke-miterlimit:10;}
]]>
</style>
<path class="st0" d="M28.167,0.5C12.887,0.5,0.5,12.887,0.5,28.167c0,15.281,12.387,27.667,27.667,27.667
	c15.281,0,27.667-12.387,27.667-27.667C55.834,12.887,43.448,0.5,28.167,0.5z M13.122,47.113c-2.284-1.812-4.289-4.05-5.848-6.715
	c-1.561-2.667-2.528-5.508-2.991-8.384l15.753-4.995c-0.254,1.776,0.035,3.644,1.012,5.315c0.979,1.672,2.467,2.838,4.145,3.492
	L13.122,47.113z M23.062,21.735l-3.645-16.12c2.717-1.055,5.661-1.656,8.75-1.656c3.089,0,6.03,0.6,8.746,1.654L33.267,21.73
	c-1.407-1.116-3.163-1.81-5.1-1.81C26.229,19.92,24.471,20.616,23.062,21.735z M43.549,46.84L31.281,35.767
	c1.663-0.681,3.128-1.87,4.078-3.558c0.948-1.69,1.204-3.563,0.919-5.339l15.84,4.714c-0.412,2.888-1.33,5.75-2.842,8.44
	C47.762,42.717,45.799,44.988,43.549,46.84z"/>
<g>
	<path class="st1" d="M28.167,19.92c1.937,0,3.693,0.694,5.1,1.81l3.646-16.117c-2.716-1.054-5.656-1.654-8.746-1.654
		c-3.089,0-6.033,0.601-8.75,1.656l3.645,16.12C24.471,20.616,26.229,19.92,28.167,19.92z"/>
	<path class="st1" d="M21.048,32.334c-0.977-1.672-1.266-3.539-1.012-5.315L4.283,32.014c0.463,2.876,1.43,5.717,2.991,8.384
		c1.559,2.665,3.564,4.903,5.848,6.715l12.071-11.286C23.515,35.172,22.027,34.006,21.048,32.334z"/>
	<path class="st1" d="M35.359,32.209c-0.95,1.688-2.415,2.877-4.078,3.558L43.549,46.84c2.25-1.853,4.213-4.123,5.727-6.815
		c1.512-2.69,2.43-5.553,2.842-8.44l-15.84-4.714C36.563,28.646,36.307,30.519,35.359,32.209z"/>
</g>
</svg>
